{
    "type": "FeatureCollection",
    "features": [
        {
            "type": "Feature",
            "id": "fd3f9aa3-07a0-4c60-8fa8-843393b353bb",
            "feature_type": "footprint",
            "properties": {
                "category": "ground",
                "building_ids": ["1c0b7e7d-6b03-4a9a-a25a-0cd640ced045"],
                "name": null
            },
            "geometry": {
                "type": "Polygon",
                "coordinates": [
                    [
                        [-122.323063, 47.598260],
                        [-122.323063, 47.597935],
                        [-122.322586, 47.597935],
                        [-122.322586, 47.598260],
                        [-122.323063, 47.598260]
                    ]
                ]
            }
        },
        {
            "type": "Feature",
            "id": "9e8fbd54-0a85-4b8d-bd55-730f89c4fd8e",
            "feature_type": "footprint",
            "properties": {
                "category": "aerial",
                "building_ids": ["1c0b7e7d-6b03-4a9a-a25a-0cd640ced045"],
                "name": null
            },
            "geometry": {
                "type": "Polygon",
                "coordinates": [
                    [
                        [-122.323063, 47.598260],
                        [-122.323063, 47.597935],
                        [-122.322586, 47.597935],
                        [-122.322586, 47.598260],
                        [-122.323063, 47.598260]
                    ]
                ]
            }
        }
    ]
}