{
  "type": "FeatureCollection",
  "features": [
    {
      "type": "Feature",
      "id": "ba460b8a-95e7-4058-aae4-8767dd7b996b",
      "feature_type": "level",
      "properties": {
        "category": "unspecified",
        "restriction": null,
        "outdoor": false,
        "ordinal": 0,
        "name": { "en": "Floor 1" },
        "short_name": { "en": "1" },
        "address_id": "849907e9-ed9b-49b4-84f9-53e06d811990",
        "building_ids": ["1c0b7e7d-6b03-4a9a-a25a-0cd640ced045"]
      },
      "geometry": {
        "type": "Polygon",
        "coordinates": [
          [
            [-122.323063, 47.598260],
            [-122.323063, 47.597935],
            [-122.322586, 47.597935],
            [-122.322586, 47.598260],
            [-122.323063, 47.598260]
          ]
        ]
      }
    },
    {
      "type": "Feature",
      "id": "29307b82-6103-411b-8c9b-9fd6ea5bac0f",
      "feature_type": "level",
      "properties": {
        "category": "unspecified",
        "restriction": null,
        "outdoor": false,
        "ordinal": 1,
        "name": { "en": "Mezzanine" },
        "short_name": { "en": "M" },
        "address_id": "849907e9-ed9b-49b4-84f9-53e06d811990",
        "building_ids": ["1c0b7e7d-6b03-4a9a-a25a-0cd640ced045"]
      },
      "geometry": {
        "type": "Polygon",
        "coordinates": [
          [
            [-122.322890, 47.598106],
            [-122.322890, 47.598182],
            [-122.322929, 47.598182],
            [-122.322929, 47.598230],
            [-122.323063, 47.598230],
            [-122.323063, 47.598099],
            [-122.322964, 47.598099],
            [-122.322964, 47.598164],
            [-122.322924, 47.598164],
            [-122.322924, 47.598106],
            [-122.322890, 47.598106]
          ]
        ]
      }
    },
    {
      "type": "Feature",
      "id": "3103c7d1-8657-46a5-80f3-9a18511546e0",
      "feature_type": "level",
      "properties": {
        "category": "unspecified",
        "restriction": null,
        "outdoor": false,
        "ordinal": 2,
        "name": { "en": "Floor 2" },
        "short_name": { "en": "2" },
        "address_id": "849907e9-ed9b-49b4-84f9-53e06d811990",
        "building_ids": ["1c0b7e7d-6b03-4a9a-a25a-0cd640ced045"]
      },
      "geometry": {
        "type": "Polygon",
        "coordinates": [
          [
            [-122.323063, 47.598260],
            [-122.323063, 47.597935],
            [-122.322586, 47.597935],
            [-122.322586, 47.598260],
            [-122.323063, 47.598260]
          ]
        ]
      }
    },
    {
      "type": "Feature",
      "id": "a77d626e-c7f6-4612-b5ef-cb32fbf6b33b",
      "feature_type": "level",
      "properties": {
        "category": "unspecified",
        "restriction": null,
        "outdoor": false,
        "ordinal": 3,
        "name": { "en": "Floor 3" },
        "short_name": { "en": "3" },
        "address_id": "849907e9-ed9b-49b4-84f9-53e06d811990",
        "building_ids": ["1c0b7e7d-6b03-4a9a-a25a-0cd640ced045"]
      },
      "geometry": {
        "type": "Polygon",
        "coordinates": [
          [
            [-122.323063, 47.598260],
            [-122.323063, 47.597935],
            [-122.322586, 47.597935],
            [-122.322586, 47.598260],
            [-122.323063, 47.598260]
          ]
        ]
      }
    }
  ]
}
